Learn Generalised Additive (Mixed) Models
…
---

```r
pdq_20 <- readRDS("data/pdq_20.rds") %>%
  mutate(
    Condition = factor(Condition, levels = c("Sparse", "Dense")),
    Age = factor(Age, levels = c("YA", "OA")),
    pupil_z = (pupil.binned - mean(pupil.binned)) / sd(pupil.binned)
  )

pdq_20
```

```
## # A tibble: 88,008 × 8
##    subject trial Condition Age   timebins Soundfile            pupil.binned  pupil_z
##      <dbl> <dbl> <fct>     <fct>    <dbl> <chr>                       <dbl>    <dbl>
##  1       1     1 Sparse    YA        -500 NAMword_675_Mule.wav       84.5    0.00347
##  2       1     1 Sparse    YA        -480 NAMword_675_Mule.wav       75.8   -0.0239 
##  3       1     1 Sparse    YA        -460 NAMword_675_Mule.wav       65.4   -0.0570 
##  4       1     1 Sparse    YA        -440 NAMword_675_Mule.wav       54.3   -0.0922 
##  5       1     1 Sparse    YA        -420 NAMword_675_Mule.wav       35.7   -0.151  
##  6       1     1 Sparse    YA        -400 NAMword_675_Mule.wav       20.2   -0.200  
##  7       1     1 Sparse    YA        -380 NAMword_675_Mule.wav        8.72  -0.237  
##  8       1     1 Sparse    YA        -360 NAMword_675_Mule.wav        0.680 -0.262  
##  9       1     1 Sparse    YA        -340 NAMword_675_Mule.wav      -11.4   -0.300  
## 10       1     1 Sparse    YA        -320 NAMword_675_Mule.wav      -23.3   -0.338  
## # ℹ 87,998 more rows
```
…
<img src="index_files/figure-html/pdq-gam-3-plot-1.png" width="60%" style="display: block; margin: auto;" />

---

```r
pdq_gam_3_diff <- get_difference(
  pdq_gam_3, series = "timebins", length_out = 100,
  compare = list(Age_o = c("OA", "YA"))
)
pdq_gam_3_diff
```

```
## # A tibble: 101 × 6
##    Age_o timebins      diff     se lower_ci upper_ci
##    <chr>    <dbl>     <dbl>  <dbl>    <dbl>    <dbl>
##  1 OA-YA    -500   0.0102   0.0340  -0.0564   0.0767
##  2 OA-YA    -462.  0.00845  0.0296  -0.0496   0.0666
##  3 OA-YA    -423.  0.00673  0.0260  -0.0442   0.0576
##  4 OA-YA    -385.  0.00496  0.0231  -0.0403   0.0503
##  5 OA-YA    -346.  0.00313  0.0211  -0.0382   0.0444
##  6 OA-YA    -308   0.00119  0.0197  -0.0374   0.0398
##  7 OA-YA    -270. -0.000898 0.0188  -0.0378   0.0360
##  8 OA-YA    -231. -0.00316  0.0183  -0.0390   0.0327
##  9 OA-YA    -193. -0.00562  0.0180  -0.0410   0.0297
## 10 OA-YA    -154. -0.00833  0.0180  -0.0435   0.0269
## # ℹ 91 more rows
```
…
---

Let's change `subject` to a factor (no need to make it an ordered factor).

```r
pdq_20 <- pdq_20 %>%
  mutate(
    subject = as.factor(subject)
  )
pdq_20
```

```
## # A tibble: 88,008 × 10
##    subject trial Condition Age   timebins Soundfile            pupil.binned  pupil_z Condition_o Age_o
##    <fct>   <dbl> <fct>     <fct>    <dbl> <chr>                       <dbl>    <dbl> <ord>       <ord>
##  1 1           1 Sparse    YA        -500 NAMword_675_Mule.wav       84.5    0.00347 Sparse      YA   
##  2 1           1 Sparse    YA        -480 NAMword_675_Mule.wav       75.8   -0.0239  Sparse      YA   
##  3 1           1 Sparse    YA        -460 NAMword_675_Mule.wav       65.4   -0.0570  Sparse      YA   
##  4 1           1 Sparse    YA        -440 NAMword_675_Mule.wav       54.3   -0.0922  Sparse      YA   
##  5 1           1 Sparse    YA        -420 NAMword_675_Mule.wav       35.7   -0.151   Sparse      YA   
##  6 1           1 Sparse    YA        -400 NAMword_675_Mule.wav       20.2   -0.200   Sparse      YA   
##  7 1           1 Sparse    YA        -380 NAMword_675_Mule.wav        8.72  -0.237   Sparse      YA   
##  8 1           1 Sparse    YA        -360 NAMword_675_Mule.wav        0.680 -0.262   Sparse      YA   
##  9 1           1 Sparse    YA        -340 NAMword_675_Mule.wav      -11.4   -0.300   Sparse      YA   
## 10 1           1 Sparse    YA        -320 NAMword_675_Mule.wav      -23.3   -0.338   Sparse      YA   
## # ℹ 87,998 more rows
```
…
